{
    "/js/app.js": "/js/app.js?id=67846fdda82bdcc2412c",
    "/css/app.css": "/css/app.css?id=a43e01bd83c2c755566d",
    "/css/tenant.css": "/css/tenant.css?id=fca3eed32585a0bbf945",
    "/js/tenant.js": "/js/tenant.js?id=3d22917432c0dea36849"
}
